…
### Simple Case

In the simple case, each of the major parts are separated by a comma:
street, city, state, and zip. In our `pharmacy_simple` data, our data
follow this convention:

``` r
pharmacy_simple
```

    ## # A tibble: 23 x 3
    ##       id title           address                                 
    ##    <dbl> <chr>           <chr>                                   
    ##  1     1 CVS             3925 Lindell Blvd, St Louis, MO, 63108  
    ##  2     2 CVS             4100 Gravois Ave, St Louis, MO, 63116   
    ##  3     3 CVS             4255 Hampton Ave, St Louis, MO, 63109   
    ##  4     4 CVS             7320 Gravois Ave, St Louis, MO, 63116   
    ##  5     5 Medicine Shoppe 3137 S Grand Blvd, St Louis, MO, 63118  
    ##  6     6 Medicine Shoppe 625 N Euclid Ave, St Louis, MO, 63108   
    ##  7     7 Walgreens       1225 Union Blvd, St Louis, MO, 63113    
    ##  8     8 Walgreens       1400 N Grand Blvd, St Louis, MO, 63106  
    ##  9     9 Walgreens       1530 Lafayette Ave, St Louis, MO, 63104 
    ## 10    10 Walgreens       2310 McCausland Ave, St Louis, MO, 63143
    ## # … with 13 more rows
…
This is useful for illustrating how `separate()` works, and introducing
the idea of parsing street addresses. However, it isn’t realistic for
most US data.

### Realistic Case

In the US, most human-entered data omits the final comma between states
and zip-codes. This makes the parsing process slightly more challening.
The `pharmacy` data are formatted like this:

``` r
pharmacy
```

    ## # A tibble: 23 x 3
    ##       id title           address                                
    ##    <dbl> <chr>           <chr>                                  
    ##  1     1 CVS             3925 Lindell Blvd, St Louis, MO 63108  
    ##  2     2 CVS             4100 Gravois Ave, St Louis, MO 63116   
    ##  3     3 CVS             4255 Hampton Ave, St Louis, MO 63109   
    ##  4     4 CVS             7320 Gravois Ave, St Louis, MO 63116   
    ##  5     5 Medicine Shoppe 3137 S Grand Blvd, St Louis, MO 63118  
    ##  6     6 Medicine Shoppe 625 N Euclid Ave, St Louis, MO 63108   
    ##  7     7 Walgreens       1225 Union Blvd, St Louis, MO 63113    
    ##  8     8 Walgreens       1400 N Grand Blvd, St Louis, MO 63106  
    ##  9     9 Walgreens       1530 Lafayette Ave, St Louis, MO 63104 
    ## 10    10 Walgreens       2310 McCausland Ave, St Louis, MO 63143
    ## # … with 13 more rows
…
